[gd_scene load_steps=8 format=3 uid="uid://dl1wclqkyra2r"]

[ext_resource type="Script" path="res://Nodes/Actors/CurioActor.gd" id="1_lieky"]
[ext_resource type="Texture2D" uid="uid://dpdhgyq1sxo5p" path="res://Tiles/Basic/tiles.png" id="2_damta"]
[ext_resource type="TileSet" uid="uid://c3av7nhigmetb" path="res://Textures/Tiles/MainDungeonAutotiles/DungeonTileset.tres" id="3_r6f76"]

[sub_resource type="TileSetAtlasSource" id="TileSetAtlasSource_qjklb"]
texture = ExtResource("2_damta")
texture_region_size = Vector2i(32, 32)
0:0/0 = 0
1:0/0 = 0
2:0/0 = 0
3:0/0 = 0
4:0/0 = 0
5:0/0 = 0
6:0/0 = 0
7:0/0 = 0
8:0/0 = 0
9:0/0 = 0
0:1/0 = 0
1:1/0 = 0
2:1/0 = 0
3:1/0 = 0
4:1/0 = 0
5:1/0 = 0
6:1/0 = 0
7:1/0 = 0
8:1/0 = 0
9:1/0 = 0
0:2/0 = 0
1:2/0 = 0
2:2/0 = 0
3:2/0 = 0
4:2/0 = 0
5:2/0 = 0
6:2/0 = 0
7:2/0 = 0
8:2/0 = 0
9:2/0 = 0
0:3/0 = 0
1:3/0 = 0
2:3/0 = 0
3:3/0 = 0
4:3/0 = 0
5:3/0 = 0
6:3/0 = 0
7:3/0 = 0
8:3/0 = 0
9:3/0 = 0
0:4/0 = 0
1:4/0 = 0
2:4/0 = 0
3:4/0 = 0
4:4/0 = 0
5:4/0 = 0
6:4/0 = 0
7:4/0 = 0
8:4/0 = 0
9:4/0 = 0
0:5/0 = 0
1:5/0 = 0
2:5/0 = 0
3:5/0 = 0
4:5/0 = 0
5:5/0 = 0
6:5/0 = 0
7:5/0 = 0
8:5/0 = 0
9:5/0 = 0
0:6/0 = 0
1:6/0 = 0
2:6/0 = 0
3:6/0 = 0
4:6/0 = 0
5:6/0 = 0
6:6/0 = 0
7:6/0 = 0
8:6/0 = 0
9:6/0 = 0
0:7/0 = 0
1:7/0 = 0
2:7/0 = 0
3:7/0 = 0
4:7/0 = 0
5:7/0 = 0
6:7/0 = 0
7:7/0 = 0
8:7/0 = 0
9:7/0 = 0
0:8/0 = 0
1:8/0 = 0
2:8/0 = 0
3:8/0 = 0
4:8/0 = 0
5:8/0 = 0
6:8/0 = 0
7:8/0 = 0
8:8/0 = 0
9:8/0 = 0
0:9/0 = 0
1:9/0 = 0
2:9/0 = 0
3:9/0 = 0
4:9/0 = 0
5:9/0 = 0
6:9/0 = 0
7:9/0 = 0
8:9/0 = 0
9:9/0 = 0

[sub_resource type="TileSet" id="TileSet_o5p5d"]
tile_size = Vector2i(32, 32)
sources/0 = SubResource("TileSetAtlasSource_qjklb")

[sub_resource type="TileSetAtlasSource" id="TileSetAtlasSource_v4t2t"]
texture = ExtResource("2_damta")
texture_region_size = Vector2i(32, 32)
0:0/0 = 0
1:0/0 = 0
2:0/0 = 0
3:0/0 = 0
4:0/0 = 0
5:0/0 = 0
6:0/0 = 0
7:0/0 = 0
8:0/0 = 0
9:0/0 = 0
0:1/0 = 0
1:1/0 = 0
2:1/0 = 0
3:1/0 = 0
4:1/0 = 0
5:1/0 = 0
6:1/0 = 0
7:1/0 = 0
8:1/0 = 0
9:1/0 = 0
0:2/0 = 0
1:2/0 = 0
2:2/0 = 0
3:2/0 = 0
4:2/0 = 0
5:2/0 = 0
6:2/0 = 0
7:2/0 = 0
8:2/0 = 0
9:2/0 = 0
0:3/0 = 0
1:3/0 = 0
2:3/0 = 0
3:3/0 = 0
4:3/0 = 0
5:3/0 = 0
6:3/0 = 0
7:3/0 = 0
8:3/0 = 0
9:3/0 = 0
0:4/0 = 0
1:4/0 = 0
2:4/0 = 0
3:4/0 = 0
4:4/0 = 0
5:4/0 = 0
6:4/0 = 0
7:4/0 = 0
8:4/0 = 0
9:4/0 = 0
0:5/0 = 0
1:5/0 = 0
2:5/0 = 0
3:5/0 = 0
4:5/0 = 0
5:5/0 = 0
6:5/0 = 0
7:5/0 = 0
8:5/0 = 0
9:5/0 = 0
0:6/0 = 0
1:6/0 = 0
2:6/0 = 0
3:6/0 = 0
4:6/0 = 0
5:6/0 = 0
6:6/0 = 0
7:6/0 = 0
8:6/0 = 0
9:6/0 = 0
0:7/0 = 0
1:7/0 = 0
2:7/0 = 0
3:7/0 = 0
4:7/0 = 0
5:7/0 = 0
6:7/0 = 0
7:7/0 = 0
8:7/0 = 0
9:7/0 = 0
0:8/0 = 0
1:8/0 = 0
2:8/0 = 0
3:8/0 = 0
4:8/0 = 0
5:8/0 = 0
6:8/0 = 0
7:8/0 = 0
8:8/0 = 0
9:8/0 = 0
0:9/0 = 0
1:9/0 = 0
2:9/0 = 0
3:9/0 = 0
4:9/0 = 0
5:9/0 = 0
6:9/0 = 0
7:9/0 = 0
8:9/0 = 0
9:9/0 = 0

[sub_resource type="TileSet" id="TileSet_khwso"]
tile_size = Vector2i(32, 32)
sources/0 = SubResource("TileSetAtlasSource_v4t2t")

[node name="GoddessDoor" type="Node2D"]
script = ExtResource("1_lieky")
curio = "bloody_queen_door"

[node name="AutoTriggerMap" type="TileMap" parent="."]
modulate = Color(0, 0.0627451, 1, 1)
tile_set = SubResource("TileSet_o5p5d")
format = 2
layer_0/tile_data = PackedInt32Array(1179661, 196608, 3)

[node name="CollisionMap" type="TileMap" parent="."]
modulate = Color(0.870588, 0.635294, 0.141176, 1)
tile_set = SubResource("TileSet_khwso")
format = 2
layer_0/tile_data = PackedInt32Array(1114125, 0, 3)

[node name="Pre" type="Node2D" parent="."]

[node name="VisualMap" type="TileMap" parent="Pre"]
scale = Vector2(0.5, 0.5)
tile_set = ExtResource("3_r6f76")
format = 2
layer_0/name = "Floor"
layer_0/tile_data = PackedInt32Array(1114125, 196616, 1)
layer_1/name = "Wall"
layer_1/enabled = true
layer_1/modulate = Color(1, 1, 1, 1)
layer_1/y_sort_enabled = false
layer_1/y_sort_origin = 0
layer_1/z_index = 0
layer_1/tile_data = PackedInt32Array()
layer_2/name = "Furniture"
layer_2/enabled = true
layer_2/modulate = Color(1, 1, 1, 1)
layer_2/y_sort_enabled = false
layer_2/y_sort_origin = 0
layer_2/z_index = 0
layer_2/tile_data = PackedInt32Array()
layer_3/name = "Decoration"
layer_3/enabled = true
layer_3/modulate = Color(1, 1, 1, 1)
layer_3/y_sort_enabled = false
layer_3/y_sort_origin = 0
layer_3/z_index = 0
layer_3/tile_data = PackedInt32Array()
layer_4/name = "path_top"
layer_4/enabled = true
layer_4/modulate = Color(1, 1, 1, 1)
layer_4/y_sort_enabled = false
layer_4/y_sort_origin = 0
layer_4/z_index = 0
layer_4/tile_data = PackedInt32Array()
layer_5/name = "path_bottom"
layer_5/enabled = true
layer_5/modulate = Color(1, 1, 1, 1)
layer_5/y_sort_enabled = false
layer_5/y_sort_origin = 0
layer_5/z_index = 0
layer_5/tile_data = PackedInt32Array()
layer_6/name = "path_right"
layer_6/enabled = true
layer_6/modulate = Color(1, 1, 1, 1)
layer_6/y_sort_enabled = false
layer_6/y_sort_origin = 0
layer_6/z_index = 0
layer_6/tile_data = PackedInt32Array()
layer_7/name = "path_left"
layer_7/enabled = true
layer_7/modulate = Color(1, 1, 1, 1)
layer_7/y_sort_enabled = false
layer_7/y_sort_origin = 0
layer_7/z_index = 0
layer_7/tile_data = PackedInt32Array()

[node name="Post" type="Node2D" parent="."]
