[gd_scene load_steps=14 format=3 uid="uid://dkvywcnhv7qsg"]

[ext_resource type="Script" path="res://Nodes/Actors/RoadActor.gd" id="1_y0b85"]
[ext_resource type="TileSet" uid="uid://b1yivb0yh24re" path="res://Tiles/MainTileset.tres" id="2_ybxoc"]
[ext_resource type="Script" path="res://Nodes/Actors/DoorActor.gd" id="3_w70x4"]
[ext_resource type="TileSet" uid="uid://tv5m3mvtxxur" path="res://Tiles/BlankTileset.tres" id="5_bp3uf"]
[ext_resource type="Script" path="res://Nodes/Rooms/EnemyGroupActor.gd" id="6_85t5j"]
[ext_resource type="TileSet" uid="uid://csi4hn0p4oj18" path="res://Tiles/ArrowTileset.tres" id="6_k2tx6"]
[ext_resource type="PackedScene" uid="uid://nhevo4y7ama8" path="res://Nodes/Rooms/CultistChest.tscn" id="6_msl6b"]
[ext_resource type="Texture2D" uid="uid://dpdhgyq1sxo5p" path="res://Tiles/Basic/tiles.png" id="7_32i7n"]
[ext_resource type="Script" path="res://Nodes/Actors/EnemyActor.gd" id="8_s4ena"]
[ext_resource type="PackedScene" uid="uid://dw7e5mm3udswb" path="res://Nodes/Sprites/Generic.tscn" id="9_madbh"]
[ext_resource type="Texture2D" uid="uid://bn16qheuvbehv" path="res://Textures/UI/exclaim.png" id="10_txv2a"]

[sub_resource type="TileSetAtlasSource" id="TileSetAtlasSource_qjklb"]
texture = ExtResource("7_32i7n")
texture_region_size = Vector2i(32, 32)
0:0/0 = 0
1:0/0 = 0
2:0/0 = 0
3:0/0 = 0
4:0/0 = 0
5:0/0 = 0
6:0/0 = 0
7:0/0 = 0
8:0/0 = 0
9:0/0 = 0
0:1/0 = 0
1:1/0 = 0
2:1/0 = 0
3:1/0 = 0
4:1/0 = 0
5:1/0 = 0
6:1/0 = 0
7:1/0 = 0
8:1/0 = 0
9:1/0 = 0
0:2/0 = 0
1:2/0 = 0
2:2/0 = 0
3:2/0 = 0
4:2/0 = 0
5:2/0 = 0
6:2/0 = 0
7:2/0 = 0
8:2/0 = 0
9:2/0 = 0
0:3/0 = 0
1:3/0 = 0
2:3/0 = 0
3:3/0 = 0
4:3/0 = 0
5:3/0 = 0
6:3/0 = 0
7:3/0 = 0
8:3/0 = 0
9:3/0 = 0
0:4/0 = 0
1:4/0 = 0
2:4/0 = 0
3:4/0 = 0
4:4/0 = 0
5:4/0 = 0
6:4/0 = 0
7:4/0 = 0
8:4/0 = 0
9:4/0 = 0
0:5/0 = 0
1:5/0 = 0
2:5/0 = 0
3:5/0 = 0
4:5/0 = 0
5:5/0 = 0
6:5/0 = 0
7:5/0 = 0
8:5/0 = 0
9:5/0 = 0
0:6/0 = 0
1:6/0 = 0
2:6/0 = 0
3:6/0 = 0
4:6/0 = 0
5:6/0 = 0
6:6/0 = 0
7:6/0 = 0
8:6/0 = 0
9:6/0 = 0
0:7/0 = 0
1:7/0 = 0
2:7/0 = 0
3:7/0 = 0
4:7/0 = 0
5:7/0 = 0
6:7/0 = 0
7:7/0 = 0
8:7/0 = 0
9:7/0 = 0
0:8/0 = 0
1:8/0 = 0
2:8/0 = 0
3:8/0 = 0
4:8/0 = 0
5:8/0 = 0
6:8/0 = 0
7:8/0 = 0
8:8/0 = 0
9:8/0 = 0
0:9/0 = 0
1:9/0 = 0
2:9/0 = 0
3:9/0 = 0
4:9/0 = 0
5:9/0 = 0
6:9/0 = 0
7:9/0 = 0
8:9/0 = 0
9:9/0 = 0

[sub_resource type="TileSet" id="TileSet_s356h"]
tile_size = Vector2i(32, 32)
sources/0 = SubResource("TileSetAtlasSource_qjklb")

[node name="Background" type="Node2D"]
script = ExtResource("1_y0b85")

[node name="VisualMap" type="TileMap" parent="."]
scale = Vector2(0.5, 0.5)
tile_set = ExtResource("2_ybxoc")
format = 2
layer_0/name = "Floor"
layer_0/tile_data = PackedInt32Array(917515, 10, 2, 917516, 65546, 2, 917517, 524298, 1, 917518, 65546, 2, 917519, 131082, 2, 851984, 131082, 2, 851983, 327690, 1, 851982, 65546, 1, 851981, 65546, 1, 851980, 65546, 1, 851979, 393226, 1, 851978, 10, 2, 786442, 10, 1, 786443, 65546, 1, 720907, 393226, 2, 655371, 10, 0, 589837, 65546, 0, 655373, 65546, 1, 720909, 65546, 1, 786445, 65546, 1, 786444, 65546, 1, 786446, 65546, 1, 786447, 65546, 1, 786448, 131082, 1, 720911, 327690, 2, 655375, 131082, 0, 720906, 10, 0, 589836, 10, 0, 655372, 393226, 2, 720908, 65546, 1, 589838, 131082, 0, 655374, 327690, 2, 720910, 65546, 1, 720912, 131082, 0)
layer_1/name = "Wall"
layer_1/enabled = true
layer_1/modulate = Color(1, 1, 1, 1)
layer_1/y_sort_enabled = false
layer_1/y_sort_origin = 0
layer_1/z_index = 0
layer_1/tile_data = PackedInt32Array(1048594, 131091, 2, 1048593, 65555, 2, 1048592, 65555, 2, 1048591, 65555, 2, 1048590, 65555, 2, 1048588, 65555, 2, 1048587, 65555, 2, 1048586, 65555, 2, 1048585, 65555, 2, 1048584, 19, 2, 917522, 131091, 1, 983058, 131091, 1, 524296, 19, 1, 589832, 19, 1, 655368, 19, 1, 720904, 19, 1, 786440, 19, 1, 851976, 19, 1, 917512, 19, 1, 983048, 19, 1, 983049, 65555, 1, 983050, 65555, 1, 983051, 65555, 1, 983052, 65555, 1, 983054, 65555, 1, 983055, 65555, 1, 983056, 65555, 1, 983057, 65555, 1, 458760, 19, 0, 458761, 65555, 0, 458762, 65555, 0, 458763, 65555, 0, 458764, 65555, 0, 458765, 65555, 0, 458766, 65555, 0, 458767, 65555, 0, 458768, 65555, 0, 458769, 65555, 0, 458770, 131091, 0, 983053, 65555, 1, 1048589, 65555, 2, 524306, 131091, 1, 589842, 131091, 1, 655378, 131091, 1, 720914, 131091, 1, 786450, 131091, 1, 851986, 131091, 1, 720905, 131091, 1, 786441, 131091, 1, 851977, 131091, 1, 720913, 19, 1, 786449, 19, 1, 851985, 19, 1, 917514, 131091, 0, 917520, 19, 0, 655376, 19, 2, 589839, 19, 2, 589835, 131091, 2, 655370, 131091, 2, 589834, 327699, 1, 655369, 327699, 1, 589840, 393235, 1, 655377, 393235, 1, 917521, 393235, 2, 917513, 327699, 2, 524300, 65555, 2, 524301, 65555, 2, 524302, 65555, 2, 524303, 393235, 1, 524299, 327699, 1, 524298, 65555, 1, 524297, 65555, 1, 589833, 65555, 1, 524304, 65555, 1, 524305, 65555, 1, 589841, 65555, 1)
layer_2/name = "Furniture"
layer_2/enabled = true
layer_2/modulate = Color(1, 1, 1, 1)
layer_2/y_sort_enabled = false
layer_2/y_sort_origin = 0
layer_2/z_index = 0
layer_2/tile_data = PackedInt32Array()
layer_3/name = "Decoration"
layer_3/enabled = true
layer_3/modulate = Color(1, 1, 1, 1)
layer_3/y_sort_enabled = false
layer_3/y_sort_origin = 0
layer_3/z_index = 0
layer_3/tile_data = PackedInt32Array()
layer_4/name = "path_top"
layer_4/enabled = true
layer_4/modulate = Color(1, 1, 1, 1)
layer_4/y_sort_enabled = false
layer_4/y_sort_origin = 0
layer_4/z_index = 0
layer_4/tile_data = PackedInt32Array()
layer_5/name = "path_bottom"
layer_5/enabled = true
layer_5/modulate = Color(1, 1, 1, 1)
layer_5/y_sort_enabled = false
layer_5/y_sort_origin = 0
layer_5/z_index = 0
layer_5/tile_data = PackedInt32Array(1048590, 19, 2, 1048588, 131091, 2, 1048589, 196618, 2, 983053, 196618, 1, 917517, 524298, 1, 983054, 19, 0, 983052, 131091, 0)
layer_6/name = "path_left"
layer_6/enabled = true
layer_6/modulate = Color(1, 1, 1, 1)
layer_6/y_sort_enabled = false
layer_6/y_sort_origin = 0
layer_6/z_index = 0
layer_6/tile_data = PackedInt32Array()
layer_7/name = "path_right"
layer_7/enabled = true
layer_7/modulate = Color(1, 1, 1, 1)
layer_7/y_sort_enabled = false
layer_7/y_sort_origin = 0
layer_7/z_index = 0
layer_7/tile_data = PackedInt32Array()

[node name="DoorActor" type="Node2D" parent="."]
position = Vector2(416, 384)
script = ExtResource("3_w70x4")
closed = true

[node name="VisualMap" type="TileMap" parent="DoorActor"]
scale = Vector2(0.5, 0.5)
tile_set = ExtResource("2_ybxoc")
format = 2
layer_1/name = "closed"
layer_1/enabled = true
layer_1/modulate = Color(1, 1, 1, 1)
layer_1/y_sort_enabled = false
layer_1/y_sort_origin = 0
layer_1/z_index = 0
layer_1/tile_data = PackedInt32Array(262144, 196627, 2, 196608, 196627, 0)
layer_2/name = "open"
layer_2/enabled = true
layer_2/modulate = Color(1, 1, 1, 1)
layer_2/y_sort_enabled = false
layer_2/y_sort_origin = 0
layer_2/z_index = 0
layer_2/tile_data = PackedInt32Array(262144, 196618, 2, 196608, 196618, 1)

[node name="CollisionMap" type="TileMap" parent="DoorActor"]
modulate = Color(1, 0.423529, 0, 0.392157)
tile_set = ExtResource("5_bp3uf")
format = 2
layer_0/tile_data = PackedInt32Array(196608, 0, 0, 262144, 262144, 3)

[node name="ManualTriggerMap" type="TileMap" parent="DoorActor"]
tile_set = ExtResource("6_k2tx6")
format = 2
layer_0/tile_data = PackedInt32Array(327680, 0, 0)

[node name="EnemyGroupActor" type="Node2D" parent="."]
position = Vector2(416, 352)
script = ExtResource("6_85t5j")
encounter_preset = "cultist_coffin"

[node name="AutoTriggerMap" type="TileMap" parent="EnemyGroupActor"]
modulate = Color(1, 0, 0, 1)
tile_set = SubResource("TileSet_s356h")
format = 2
layer_0/tile_data = PackedInt32Array(196608, 0, 1, 196609, 0, 1, 262143, 0, 1, 262142, 0, 2, 196610, 0, 2, 262144, 0, 2, 65533, 0, 2, 131069, 0, 2, 196605, 0, 2, 65534, 0, 2, 131070, 0, 2, 196606, 0, 2, 65535, 0, 2, 131071, 0, 2, 196607, 0, 2, 0, 0, 2, 65536, 0, 2, 131072, 0, 2, 1, 0, 2, 65537, 0, 2, 131073, 0, 2, 2, 0, 2, 65538, 0, 2, 131074, 0, 2, 3, 0, 2, 65539, 0, 2, 131075, 0, 2, -2, 0, 2, -1, 0, 2, -65536, 0, 2, -65535, 0, 2, -65534, 0, 2)

[node name="EnemyActor" type="Node2D" parent="EnemyGroupActor"]
position = Vector2(-65, 61)
script = ExtResource("8_s4ena")

[node name="Sprite" parent="EnemyGroupActor/EnemyActor" instance=ExtResource("9_madbh")]
position = Vector2(-17, -32)
scale = Vector2(0.5, 0.5)

[node name="Exclaim" type="Sprite2D" parent="EnemyGroupActor/EnemyActor"]
visible = false
position = Vector2(0, -38)
scale = Vector2(0.5, 0.5)
texture = ExtResource("10_txv2a")
centered = false

[node name="EnemyActor2" type="Node2D" parent="EnemyGroupActor"]
position = Vector2(65, 61)
script = ExtResource("8_s4ena")

[node name="Sprite" parent="EnemyGroupActor/EnemyActor2" instance=ExtResource("9_madbh")]
position = Vector2(-17, -32)
scale = Vector2(0.5, 0.5)

[node name="Exclaim" type="Sprite2D" parent="EnemyGroupActor/EnemyActor2"]
visible = false
position = Vector2(0, -38)
scale = Vector2(0.5, 0.5)
texture = ExtResource("10_txv2a")
centered = false

[node name="EnemyActor3" type="Node2D" parent="EnemyGroupActor"]
position = Vector2(-64, -4)
script = ExtResource("8_s4ena")

[node name="Sprite" parent="EnemyGroupActor/EnemyActor3" instance=ExtResource("9_madbh")]
position = Vector2(-17, -32)
scale = Vector2(0.5, 0.5)

[node name="Exclaim" type="Sprite2D" parent="EnemyGroupActor/EnemyActor3"]
visible = false
position = Vector2(0, -38)
scale = Vector2(0.5, 0.5)
texture = ExtResource("10_txv2a")
centered = false

[node name="EnemyActor4" type="Node2D" parent="EnemyGroupActor"]
position = Vector2(64, -2)
script = ExtResource("8_s4ena")

[node name="Sprite" parent="EnemyGroupActor/EnemyActor4" instance=ExtResource("9_madbh")]
position = Vector2(-17, -32)
scale = Vector2(0.5, 0.5)

[node name="Exclaim" type="Sprite2D" parent="EnemyGroupActor/EnemyActor4"]
visible = false
position = Vector2(0, -38)
scale = Vector2(0.5, 0.5)
texture = ExtResource("10_txv2a")
centered = false

[node name="CollisionMap" type="TileMap" parent="."]
modulate = Color(1, 0.423529, 0, 0.392157)
tile_set = ExtResource("5_bp3uf")
format = 2
layer_0/tile_data = PackedInt32Array(1048584, 0, 2, 1048585, 0, 2, 1048586, 0, 2, 1048587, 0, 2, 1048588, 0, 2, 983052, 0, 2, 983051, 0, 2, 983050, 0, 2, 983049, 458752, 0, 983048, 0, 2, 917512, 0, 2, 851976, 0, 2, 1048591, 0, 2, 1048592, 0, 2, 1048590, 0, 2, 1048593, 0, 2, 1048594, 0, 2, 983058, 0, 2, 983057, 0, 2, 983056, 0, 2, 983055, 0, 2, 983054, 0, 2, 917522, 0, 2, 851986, 0, 2, 720914, 0, 2, 655378, 0, 2, 589842, 0, 2, 524306, 458752, 0, 458770, 458752, 0, 458769, 458752, 0, 458768, 458752, 0, 458767, 458752, 0, 458766, 458752, 0, 524302, 458752, 0, 524305, 458752, 0, 524304, 458752, 0, 524303, 458752, 0, 655376, 0, 2, 589840, 0, 2, 720905, 458752, 0, 655369, 458752, 0, 524297, 458752, 0, 524298, 458752, 0, 458762, 458752, 0, 458761, 458752, 0, 524296, 458752, 0, 458760, 458752, 0, 589832, 0, 2, 655368, 0, 2, 720904, 0, 2, 655370, 0, 2, 589834, 0, 2, 458763, 458752, 0, 524299, 458752, 0, 524300, 458752, 0, 458764, 458752, 0, 458765, 458752, 0, 524301, 458752, 0, 589841, 458752, 0, 655377, 458752, 0, 720913, 458752, 0, 786449, 458752, 0, 851985, 458752, 0, 917521, 458752, 0, 786450, 458752, 0, 589833, 458752, 0, 786441, 458752, 0, 851977, 458752, 0, 917513, 458752, 0, 917514, 458752, 0, 786440, 458752, 0, 917520, 458752, 0, 589839, 458752, 0, 589835, 458752, 0)
layer_1/name = "path_top"
layer_1/enabled = true
layer_1/modulate = Color(1, 1, 1, 1)
layer_1/y_sort_enabled = false
layer_1/y_sort_origin = 0
layer_1/z_index = 0
layer_1/tile_data = PackedInt32Array()
layer_2/name = "path_bottom"
layer_2/enabled = true
layer_2/modulate = Color(1, 1, 1, 1)
layer_2/y_sort_enabled = false
layer_2/y_sort_origin = 0
layer_2/z_index = 0
layer_2/tile_data = PackedInt32Array()
layer_3/name = "path_left"
layer_3/enabled = true
layer_3/modulate = Color(1, 1, 1, 1)
layer_3/y_sort_enabled = false
layer_3/y_sort_origin = 0
layer_3/z_index = 0
layer_3/tile_data = PackedInt32Array()
layer_4/name = "path_right"
layer_4/enabled = true
layer_4/modulate = Color(1, 1, 1, 1)
layer_4/y_sort_enabled = false
layer_4/y_sort_origin = 0
layer_4/z_index = 0
layer_4/tile_data = PackedInt32Array()

[node name="CultistChest" parent="." instance=ExtResource("6_msl6b")]
