[gd_scene load_steps=7 format=3 uid="uid://nhevo4y7ama8"]

[ext_resource type="Script" path="res://Nodes/Actors/CurioActor.gd" id="1_1dgtg"]
[ext_resource type="Texture2D" uid="uid://dpdhgyq1sxo5p" path="res://Tiles/Basic/tiles.png" id="2_rpxr8"]
[ext_resource type="Texture2D" uid="uid://cf1rmadihwain" path="res://Textures/Tiles/Ratkin/ironchest_closed.png" id="3_02yvi"]
[ext_resource type="Texture2D" uid="uid://cv28u0onk81in" path="res://Textures/Tiles/Ratkin/ironchest_open.png" id="4_howyu"]

[sub_resource type="TileSetAtlasSource" id="TileSetAtlasSource_qjklb"]
texture = ExtResource("2_rpxr8")
texture_region_size = Vector2i(32, 32)
0:0/0 = 0
1:0/0 = 0
2:0/0 = 0
3:0/0 = 0
4:0/0 = 0
5:0/0 = 0
6:0/0 = 0
7:0/0 = 0
8:0/0 = 0
9:0/0 = 0
0:1/0 = 0
1:1/0 = 0
2:1/0 = 0
3:1/0 = 0
4:1/0 = 0
5:1/0 = 0
6:1/0 = 0
7:1/0 = 0
8:1/0 = 0
9:1/0 = 0
0:2/0 = 0
1:2/0 = 0
2:2/0 = 0
3:2/0 = 0
4:2/0 = 0
5:2/0 = 0
6:2/0 = 0
7:2/0 = 0
8:2/0 = 0
9:2/0 = 0
0:3/0 = 0
1:3/0 = 0
2:3/0 = 0
3:3/0 = 0
4:3/0 = 0
5:3/0 = 0
6:3/0 = 0
7:3/0 = 0
8:3/0 = 0
9:3/0 = 0
0:4/0 = 0
1:4/0 = 0
2:4/0 = 0
3:4/0 = 0
4:4/0 = 0
5:4/0 = 0
6:4/0 = 0
7:4/0 = 0
8:4/0 = 0
9:4/0 = 0
0:5/0 = 0
1:5/0 = 0
2:5/0 = 0
3:5/0 = 0
4:5/0 = 0
5:5/0 = 0
6:5/0 = 0
7:5/0 = 0
8:5/0 = 0
9:5/0 = 0
0:6/0 = 0
1:6/0 = 0
2:6/0 = 0
3:6/0 = 0
4:6/0 = 0
5:6/0 = 0
6:6/0 = 0
7:6/0 = 0
8:6/0 = 0
9:6/0 = 0
0:7/0 = 0
1:7/0 = 0
2:7/0 = 0
3:7/0 = 0
4:7/0 = 0
5:7/0 = 0
6:7/0 = 0
7:7/0 = 0
8:7/0 = 0
9:7/0 = 0
0:8/0 = 0
1:8/0 = 0
2:8/0 = 0
3:8/0 = 0
4:8/0 = 0
5:8/0 = 0
6:8/0 = 0
7:8/0 = 0
8:8/0 = 0
9:8/0 = 0
0:9/0 = 0
1:9/0 = 0
2:9/0 = 0
3:9/0 = 0
4:9/0 = 0
5:9/0 = 0
6:9/0 = 0
7:9/0 = 0
8:9/0 = 0
9:9/0 = 0

[sub_resource type="TileSet" id="TileSet_o5p5d"]
tile_size = Vector2i(32, 32)
sources/0 = SubResource("TileSetAtlasSource_qjklb")

[node name="CultistChest" type="Node2D"]
position = Vector2(416, 384)
script = ExtResource("1_1dgtg")
curio = "cultist_chest"
walkable_when_disabled = false

[node name="CollisionMap" type="TileMap" parent="."]
modulate = Color(1, 0.423529, 0, 1)
tile_set = SubResource("TileSet_o5p5d")
format = 2
layer_0/tile_data = PackedInt32Array(0, 0, 0)

[node name="ManualTriggerMap" type="TileMap" parent="."]
modulate = Color(0, 0.0627451, 1, 1)
tile_set = SubResource("TileSet_o5p5d")
format = 2
layer_0/tile_data = PackedInt32Array(65536, 0, 0, 1, 0, 0, -65536, 0, 0, 65535, 0, 0)

[node name="Pre" type="Node2D" parent="."]
unique_name_in_owner = true

[node name="ClosedChest" type="Sprite2D" parent="Pre"]
scale = Vector2(0.5, 0.5)
texture = ExtResource("3_02yvi")
centered = false

[node name="Post" type="Node2D" parent="."]
unique_name_in_owner = true

[node name="OpenChest" type="Sprite2D" parent="Post"]
scale = Vector2(0.5, 0.5)
texture = ExtResource("4_howyu")
centered = false
