[gd_resource type="Animation" format=3 uid="uid://c63lcutd5ojeb"]

[resource]
resource_name = "bloodyqueen_idle"
length = 2.0
loop_mode = 1
tracks/0/type = "value"
tracks/0/imported = false
tracks/0/enabled = true
tracks/0/path = NodePath("SkeletonPosition/Skeleton/belly/upleg2/downleg2/foot2:position")
tracks/0/interp = 2
tracks/0/loop_wrap = true
tracks/0/keys = {
"times": PackedFloat32Array(0, 1, 2),
"transitions": PackedFloat32Array(1, 1, 1),
"update": 0,
"values": [Vector2(-6.40468, 83.0049), Vector2(-6.40468, 83.0049), Vector2(-6.40468, 83.0049)]
}
tracks/1/type = "value"
tracks/1/imported = false
tracks/1/enabled = true
tracks/1/path = NodePath("SkeletonPosition/Skeleton/belly/upleg2/downleg2/foot2:rotation")
tracks/1/interp = 4
tracks/1/loop_wrap = true
tracks/1/keys = {
"times": PackedFloat32Array(0, 1),
"transitions": PackedFloat32Array(1, 1),
"update": 0,
"values": [0.59281, 0.54644]
}
tracks/2/type = "value"
tracks/2/imported = false
tracks/2/enabled = true
tracks/2/path = NodePath("SkeletonPosition/Skeleton/belly/chest:position")
tracks/2/interp = 2
tracks/2/loop_wrap = true
tracks/2/keys = {
"times": PackedFloat32Array(0, 1),
"transitions": PackedFloat32Array(1, 1),
"update": 0,
"values": [Vector2(1.83627, -74.237), Vector2(1.83627, -74.237)]
}
tracks/3/type = "value"
tracks/3/imported = false
tracks/3/enabled = true
tracks/3/path = NodePath("SkeletonPosition/Skeleton/belly/chest:rotation")
tracks/3/interp = 4
tracks/3/loop_wrap = true
tracks/3/keys = {
"times": PackedFloat32Array(0, 1),
"transitions": PackedFloat32Array(1, 1),
"update": 0,
"values": [0.0, -0.026025]
}
tracks/4/type = "value"
tracks/4/imported = false
tracks/4/enabled = true
tracks/4/path = NodePath("SkeletonPosition/Skeleton/belly/chest/head:position")
tracks/4/interp = 2
tracks/4/loop_wrap = true
tracks/4/keys = {
"times": PackedFloat32Array(0, 1),
"transitions": PackedFloat32Array(1, 1),
"update": 0,
"values": [Vector2(-1.32259, -82.2193), Vector2(-1.32259, -82.2193)]
}
tracks/5/type = "value"
tracks/5/imported = false
tracks/5/enabled = true
tracks/5/path = NodePath("SkeletonPosition/Skeleton/belly/chest/head:rotation")
tracks/5/interp = 4
tracks/5/loop_wrap = true
tracks/5/keys = {
"times": PackedFloat32Array(0, 1),
"transitions": PackedFloat32Array(1, 1),
"update": 0,
"values": [0.0, 0.0254191]
}
tracks/6/type = "value"
tracks/6/imported = false
tracks/6/enabled = true
tracks/6/path = NodePath("SkeletonPosition/Skeleton/belly/chest/head/hair:position")
tracks/6/interp = 2
tracks/6/loop_wrap = true
tracks/6/keys = {
"times": PackedFloat32Array(0, 1),
"transitions": PackedFloat32Array(1, 1),
"update": 0,
"values": [Vector2(-0.199753, -87.4739), Vector2(-0.199753, -87.4739)]
}
tracks/7/type = "value"
tracks/7/imported = false
tracks/7/enabled = true
tracks/7/path = NodePath("SkeletonPosition/Skeleton/belly/chest/head/hair:rotation")
tracks/7/interp = 4
tracks/7/loop_wrap = true
tracks/7/keys = {
"times": PackedFloat32Array(0, 1),
"transitions": PackedFloat32Array(1, 1),
"update": 0,
"values": [0.0, 0.0]
}
tracks/8/type = "value"
tracks/8/imported = false
tracks/8/enabled = true
tracks/8/path = NodePath("SkeletonPosition/Skeleton/belly/chest/uparm1:position")
tracks/8/interp = 2
tracks/8/loop_wrap = true
tracks/8/keys = {
"times": PackedFloat32Array(0, 1),
"transitions": PackedFloat32Array(1, 1),
"update": 0,
"values": [Vector2(-38.9929, -47.4692), Vector2(-38.9929, -47.4692)]
}
tracks/9/type = "value"
tracks/9/imported = false
tracks/9/enabled = true
tracks/9/path = NodePath("SkeletonPosition/Skeleton/belly/chest/uparm1:rotation")
tracks/9/interp = 4
tracks/9/loop_wrap = true
tracks/9/keys = {
"times": PackedFloat32Array(0, 1),
"transitions": PackedFloat32Array(1, 1),
"update": 0,
"values": [-0.699866, -0.766112]
}
tracks/10/type = "value"
tracks/10/imported = false
tracks/10/enabled = true
tracks/10/path = NodePath("SkeletonPosition/Skeleton/belly/chest/uparm1/downarm1:position")
tracks/10/interp = 2
tracks/10/loop_wrap = true
tracks/10/keys = {
"times": PackedFloat32Array(0, 1),
"transitions": PackedFloat32Array(1, 1),
"update": 0,
"values": [Vector2(-43.4133, 36.7691), Vector2(-43.4133, 36.7691)]
}
tracks/11/type = "value"
tracks/11/imported = false
tracks/11/enabled = true
tracks/11/path = NodePath("SkeletonPosition/Skeleton/belly/chest/uparm1/downarm1:rotation")
tracks/11/interp = 4
tracks/11/loop_wrap = true
tracks/11/keys = {
"times": PackedFloat32Array(0, 1),
"transitions": PackedFloat32Array(1, 1),
"update": 0,
"values": [0.722938, 0.481688]
}
tracks/12/type = "value"
tracks/12/imported = false
tracks/12/enabled = true
tracks/12/path = NodePath("SkeletonPosition/Skeleton/belly/chest/uparm1/downarm1/hand1:position")
tracks/12/interp = 2
tracks/12/loop_wrap = true
tracks/12/keys = {
"times": PackedFloat32Array(0, 1),
"transitions": PackedFloat32Array(1, 1),
"update": 0,
"values": [Vector2(-24.8216, 43.403), Vector2(-24.8216, 43.403)]
}
tracks/13/type = "value"
tracks/13/imported = false
tracks/13/enabled = true
tracks/13/path = NodePath("SkeletonPosition/Skeleton/belly/chest/uparm1/downarm1/hand1:rotation")
tracks/13/interp = 4
tracks/13/loop_wrap = true
tracks/13/keys = {
"times": PackedFloat32Array(0, 1),
"transitions": PackedFloat32Array(1, 1),
"update": 0,
"values": [-0.00072077, -0.00072077]
}
tracks/14/type = "value"
tracks/14/imported = false
tracks/14/enabled = true
tracks/14/path = NodePath("SkeletonPosition/Skeleton/belly/chest/uparm2:position")
tracks/14/interp = 2
tracks/14/loop_wrap = true
tracks/14/keys = {
"times": PackedFloat32Array(0, 1, 1.0001, 1.0002),
"transitions": PackedFloat32Array(1, 1, 1, 1),
"update": 0,
"values": [Vector2(17.2283, -50.3459), Vector2(17.2283, -50.3459), Vector2(17.2283, -50.3459), Vector2(17.2283, -50.3459)]
}
tracks/15/type = "value"
tracks/15/imported = false
tracks/15/enabled = true
tracks/15/path = NodePath("SkeletonPosition/Skeleton/belly/chest/uparm2:rotation")
tracks/15/interp = 4
tracks/15/loop_wrap = true
tracks/15/keys = {
"times": PackedFloat32Array(0, 1),
"transitions": PackedFloat32Array(1, 1),
"update": 0,
"values": [0.326977, 0.471652]
}
tracks/16/type = "value"
tracks/16/imported = false
tracks/16/enabled = true
tracks/16/path = NodePath("SkeletonPosition/Skeleton/belly/chest/uparm2/downarm2:position")
tracks/16/interp = 2
tracks/16/loop_wrap = true
tracks/16/keys = {
"times": PackedFloat32Array(0, 1),
"transitions": PackedFloat32Array(1, 1),
"update": 0,
"values": [Vector2(34.7932, 39.4905), Vector2(34.7932, 39.4905)]
}
tracks/17/type = "value"
tracks/17/imported = false
tracks/17/enabled = true
tracks/17/path = NodePath("SkeletonPosition/Skeleton/belly/chest/uparm2/downarm2:rotation")
tracks/17/interp = 4
tracks/17/loop_wrap = true
tracks/17/keys = {
"times": PackedFloat32Array(0, 1),
"transitions": PackedFloat32Array(1, 1),
"update": 0,
"values": [5.88592, 5.94578]
}
tracks/18/type = "value"
tracks/18/imported = false
tracks/18/enabled = true
tracks/18/path = NodePath("SkeletonPosition/Skeleton/belly/chest/uparm2/downarm2/hand2:position")
tracks/18/interp = 2
tracks/18/loop_wrap = true
tracks/18/keys = {
"times": PackedFloat32Array(0, 1),
"transitions": PackedFloat32Array(1, 1),
"update": 0,
"values": [Vector2(30.8158, 37.4893), Vector2(30.8158, 37.4893)]
}
tracks/19/type = "value"
tracks/19/imported = false
tracks/19/enabled = true
tracks/19/path = NodePath("SkeletonPosition/Skeleton/belly/chest/uparm2/downarm2/hand2:rotation")
tracks/19/interp = 4
tracks/19/loop_wrap = true
tracks/19/keys = {
"times": PackedFloat32Array(0, 1),
"transitions": PackedFloat32Array(1, 1),
"update": 0,
"values": [0.519304, 0.608495]
}
tracks/20/type = "value"
tracks/20/imported = false
tracks/20/enabled = true
tracks/20/path = NodePath("SkeletonPosition/Skeleton/belly/upleg1:position")
tracks/20/interp = 2
tracks/20/loop_wrap = true
tracks/20/keys = {
"times": PackedFloat32Array(0, 1),
"transitions": PackedFloat32Array(1, 1),
"update": 0,
"values": [Vector2(-18.2593, -18.0619), Vector2(-18.2593, -18.0619)]
}
tracks/21/type = "value"
tracks/21/imported = false
tracks/21/enabled = true
tracks/21/path = NodePath("SkeletonPosition/Skeleton/belly/upleg1:rotation")
tracks/21/interp = 4
tracks/21/loop_wrap = true
tracks/21/keys = {
"times": PackedFloat32Array(0, 1),
"transitions": PackedFloat32Array(1, 1),
"update": 0,
"values": [-0.284103, -0.226812]
}
tracks/22/type = "value"
tracks/22/imported = false
tracks/22/enabled = true
tracks/22/path = NodePath("SkeletonPosition/Skeleton/belly/upleg1/downleg1:position")
tracks/22/interp = 2
tracks/22/loop_wrap = true
tracks/22/keys = {
"times": PackedFloat32Array(0, 1),
"transitions": PackedFloat32Array(1, 1),
"update": 0,
"values": [Vector2(-23.0633, 73.1281), Vector2(-23.0633, 73.1281)]
}
tracks/23/type = "value"
tracks/23/imported = false
tracks/23/enabled = true
tracks/23/path = NodePath("SkeletonPosition/Skeleton/belly/upleg1/downleg1:rotation")
tracks/23/interp = 4
tracks/23/loop_wrap = true
tracks/23/keys = {
"times": PackedFloat32Array(0, 1),
"transitions": PackedFloat32Array(1, 1),
"update": 0,
"values": [0.0453452, 0.0665598]
}
tracks/24/type = "value"
tracks/24/imported = false
tracks/24/enabled = true
tracks/24/path = NodePath("SkeletonPosition/Skeleton/belly/upleg1/downleg1/foot1:position")
tracks/24/interp = 2
tracks/24/loop_wrap = true
tracks/24/keys = {
"times": PackedFloat32Array(0, 1),
"transitions": PackedFloat32Array(1, 1),
"update": 0,
"values": [Vector2(-23.6796, 80.6761), Vector2(-23.6796, 80.6761)]
}
tracks/25/type = "value"
tracks/25/imported = false
tracks/25/enabled = true
tracks/25/path = NodePath("SkeletonPosition/Skeleton/belly/upleg1/downleg1/foot1:rotation")
tracks/25/interp = 4
tracks/25/loop_wrap = true
tracks/25/keys = {
"times": PackedFloat32Array(0, 1),
"transitions": PackedFloat32Array(1, 1),
"update": 0,
"values": [0.322237, 0.127086]
}
tracks/26/type = "value"
tracks/26/imported = false
tracks/26/enabled = true
tracks/26/path = NodePath("SkeletonPosition/Skeleton/belly/upleg2:position")
tracks/26/interp = 2
tracks/26/loop_wrap = true
tracks/26/keys = {
"times": PackedFloat32Array(0, 1),
"transitions": PackedFloat32Array(1, 1),
"update": 0,
"values": [Vector2(15.7883, -24.4757), Vector2(15.7883, -24.4757)]
}
tracks/27/type = "value"
tracks/27/imported = false
tracks/27/enabled = true
tracks/27/path = NodePath("SkeletonPosition/Skeleton/belly/upleg2:rotation")
tracks/27/interp = 4
tracks/27/loop_wrap = true
tracks/27/keys = {
"times": PackedFloat32Array(0, 1),
"transitions": PackedFloat32Array(1, 1),
"update": 0,
"values": [-0.561945, -0.318917]
}
tracks/28/type = "value"
tracks/28/imported = false
tracks/28/enabled = true
tracks/28/path = NodePath("SkeletonPosition/Skeleton/belly/upleg2/downleg2:position")
tracks/28/interp = 2
tracks/28/loop_wrap = true
tracks/28/keys = {
"times": PackedFloat32Array(0, 1),
"transitions": PackedFloat32Array(1, 1),
"update": 0,
"values": [Vector2(-8.31833, 73.1282), Vector2(-8.31833, 73.1282)]
}
tracks/29/type = "value"
tracks/29/imported = false
tracks/29/enabled = true
tracks/29/path = NodePath("SkeletonPosition/Skeleton/belly/upleg2/downleg2:rotation")
tracks/29/interp = 4
tracks/29/loop_wrap = true
tracks/29/keys = {
"times": PackedFloat32Array(0, 1),
"transitions": PackedFloat32Array(1, 1),
"update": 0,
"values": [0.96659, 0.612812]
}
tracks/30/type = "value"
tracks/30/imported = false
tracks/30/enabled = true
tracks/30/path = NodePath("SkeletonPosition/Skeleton/belly:position")
tracks/30/interp = 2
tracks/30/loop_wrap = true
tracks/30/keys = {
"times": PackedFloat32Array(0, 1),
"transitions": PackedFloat32Array(1, 1),
"update": 0,
"values": [Vector2(247.603, 280.077), Vector2(258.391, 290.291)]
}
tracks/31/type = "value"
tracks/31/imported = false
tracks/31/enabled = true
tracks/31/path = NodePath("SkeletonPosition/Skeleton/belly:rotation")
tracks/31/interp = 4
tracks/31/loop_wrap = true
tracks/31/keys = {
"times": PackedFloat32Array(0, 1),
"transitions": PackedFloat32Array(1, 1),
"update": 0,
"values": [0.0, 0.0]
}
